Suite/Test/Step Name,Browser,Description,Tag,Start time,End time,Duration,Status
Runner Cucumber,Chrome 122.0.0.0,,,22-02-2024 12:53:31,22-02-2024 12:55:10,1m - 39.352s,PASSED
,,,,,,,
Test Cases/cucumber/Runner,Chrome 122.0.0.0,,,22-02-2024 12:53:31,22-02-2024 12:55:10,1m - 39.106s,PASSED
Start listener action : beforeTestCase,Chrome 122.0.0.0,,,22-02-2024 12:53:31,22-02-2024 12:53:31,0.191s,PASSED
runWithCucumberRunner(Runner),Chrome 122.0.0.0,,,22-02-2024 12:53:31,22-02-2024 12:55:10,1m - 38.743s,PASSED
