Suite/Test/Step Name,Browser,Description,Tag,Start time,End time,Duration,Status
Feature Login,Chrome 122.0.0.0,,,21-02-2024 19:28:52,21-02-2024 19:29:28,35.987s,PASSED
,,,,,,,
Test Cases/Step Definition/Feature Login/LG001 - pengguna tidak isi username dan pasword saat login,Chrome 122.0.0.0,,,21-02-2024 19:28:53,21-02-2024 19:29:00,7.047s,PASSED
Start listener action : beforeTestCase,Chrome 122.0.0.0,,,21-02-2024 19:28:53,21-02-2024 19:28:53,0.191s,PASSED
"callTestCase(findTestCase(""Buka Website""), [:], STOP_ON_FAILURE)",Chrome 122.0.0.0,,,21-02-2024 19:28:53,21-02-2024 19:28:57,3.560s,PASSED
"callTestCase(findTestCase(""Page/User Login/Click btn untuk masuk ke halaman login""), [:], STOP_ON_FAILURE)",Chrome 122.0.0.0,,,21-02-2024 19:28:57,21-02-2024 19:28:57,0.575s,PASSED
"callTestCase(findTestCase(""Page/User Login/Verify content""), [:], STOP_ON_FAILURE)",Chrome 122.0.0.0,,,21-02-2024 19:28:57,21-02-2024 19:28:59,1.571s,PASSED
"callTestCase(findTestCase(""Page/User Login/btn login""), [:], STOP_ON_FAILURE)",Chrome 122.0.0.0,,,21-02-2024 19:28:59,21-02-2024 19:28:59,0.469s,PASSED
"callTestCase(findTestCase(""Close Browser""), [:], STOP_ON_FAILURE)",Chrome 122.0.0.0,,,21-02-2024 19:28:59,21-02-2024 19:29:00,0.512s,PASSED
,,,,,,,
Test Cases/Step Definition/Feature Login/LG002 - pengguna login dengan username dan password salah,Chrome 122.0.0.0,,,21-02-2024 19:29:00,21-02-2024 19:29:07,7.066s,PASSED
Start listener action : beforeTestCase,Chrome 122.0.0.0,,,21-02-2024 19:29:00,21-02-2024 19:29:00,0.025s,PASSED
"callTestCase(findTestCase(""Buka Website""), [:], STOP_ON_FAILURE)",Chrome 122.0.0.0,,,21-02-2024 19:29:00,21-02-2024 19:29:02,2.128s,PASSED
"callTestCase(findTestCase(""Page/User Login/Click btn untuk masuk ke halaman login""), [:], STOP_ON_FAILURE)",Chrome 122.0.0.0,,,21-02-2024 19:29:02,21-02-2024 19:29:02,0.434s,PASSED
"callTestCase(findTestCase(""Page/User Login/Verify content""), [:], STOP_ON_FAILURE)",Chrome 122.0.0.0,,,21-02-2024 19:29:02,21-02-2024 19:29:04,1.572s,PASSED
"callTestCase(findTestCase(""Page/User Login/Input username salah""), [:], STOP_ON_FAILURE)",Chrome 122.0.0.0,,,21-02-2024 19:29:04,21-02-2024 19:29:05,0.889s,PASSED
"callTestCase(findTestCase(""Page/User Login/Input password salah""), [:], STOP_ON_FAILURE)",Chrome 122.0.0.0,,,21-02-2024 19:29:05,21-02-2024 19:29:05,0.495s,PASSED
"callTestCase(findTestCase(""Page/User Login/btn login""), [:], STOP_ON_FAILURE)",Chrome 122.0.0.0,,,21-02-2024 19:29:05,21-02-2024 19:29:06,0.419s,PASSED
"callTestCase(findTestCase(""Page/User Login/Read error mesaage""), [""expected"":""invalid username or password""], STOP_ON_FAILURE)",Chrome 122.0.0.0,,,21-02-2024 19:29:06,21-02-2024 19:29:06,0.676s,PASSED
"callTestCase(findTestCase(""Close Browser""), [:], STOP_ON_FAILURE)",Chrome 122.0.0.0,,,21-02-2024 19:29:06,21-02-2024 19:29:07,0.261s,PASSED
,,,,,,,
Test Cases/Step Definition/Feature Login/LG003 - pengguna login dengan username benar dan password salah,Chrome 122.0.0.0,,,21-02-2024 19:29:07,21-02-2024 19:29:14,7.317s,PASSED
Start listener action : beforeTestCase,Chrome 122.0.0.0,,,21-02-2024 19:29:07,21-02-2024 19:29:07,0.003s,PASSED
"callTestCase(findTestCase(""Buka Website""), [:], STOP_ON_FAILURE)",Chrome 122.0.0.0,,,21-02-2024 19:29:07,21-02-2024 19:29:09,2.438s,PASSED
"callTestCase(findTestCase(""Page/User Login/Click btn untuk masuk ke halaman login""), [:], STOP_ON_FAILURE)",Chrome 122.0.0.0,,,21-02-2024 19:29:09,21-02-2024 19:29:10,0.413s,PASSED
"callTestCase(findTestCase(""Page/User Login/Verify content""), [:], STOP_ON_FAILURE)",Chrome 122.0.0.0,,,21-02-2024 19:29:10,21-02-2024 19:29:11,1.546s,PASSED
"callTestCase(findTestCase(""Page/User Login/Input username benar""), [:], STOP_ON_FAILURE)",Chrome 122.0.0.0,,,21-02-2024 19:29:11,21-02-2024 19:29:12,0.787s,PASSED
"callTestCase(findTestCase(""Page/User Login/Input password salah""), [:], STOP_ON_FAILURE)",Chrome 122.0.0.0,,,21-02-2024 19:29:12,21-02-2024 19:29:12,0.415s,PASSED
"callTestCase(findTestCase(""Page/User Login/btn login""), [:], STOP_ON_FAILURE)",Chrome 122.0.0.0,,,21-02-2024 19:29:12,21-02-2024 19:29:13,0.438s,PASSED
"callTestCase(findTestCase(""Page/User Login/Read error mesaage""), [""expected"":""invalid username or password""], STOP_ON_FAILURE)",Chrome 122.0.0.0,,,21-02-2024 19:29:13,21-02-2024 19:29:14,0.943s,PASSED
"callTestCase(findTestCase(""Close Browser""), [:], STOP_ON_FAILURE)",Chrome 122.0.0.0,,,21-02-2024 19:29:14,21-02-2024 19:29:14,0.234s,PASSED
,,,,,,,
Test Cases/Step Definition/Feature Login/LG004 - pengguna login dengan username salah dan password benar,Chrome 122.0.0.0,,,21-02-2024 19:29:14,21-02-2024 19:29:20,6.453s,PASSED
Start listener action : beforeTestCase,Chrome 122.0.0.0,,,21-02-2024 19:29:14,21-02-2024 19:29:14,0.004s,PASSED
"callTestCase(findTestCase(""Buka Website""), [:], STOP_ON_FAILURE)",Chrome 122.0.0.0,,,21-02-2024 19:29:14,21-02-2024 19:29:16,1.862s,PASSED
"callTestCase(findTestCase(""Page/User Login/Click btn untuk masuk ke halaman login""), [:], STOP_ON_FAILURE)",Chrome 122.0.0.0,,,21-02-2024 19:29:16,21-02-2024 19:29:16,0.423s,PASSED
"callTestCase(findTestCase(""Page/User Login/Verify content""), [:], STOP_ON_FAILURE)",Chrome 122.0.0.0,,,21-02-2024 19:29:16,21-02-2024 19:29:18,1.470s,PASSED
"callTestCase(findTestCase(""Page/User Login/Input username salah""), [:], STOP_ON_FAILURE)",Chrome 122.0.0.0,,,21-02-2024 19:29:18,21-02-2024 19:29:19,0.763s,PASSED
"callTestCase(findTestCase(""Page/User Login/Input password benar""), [:], STOP_ON_FAILURE)",Chrome 122.0.0.0,,,21-02-2024 19:29:19,21-02-2024 19:29:19,0.468s,PASSED
"callTestCase(findTestCase(""Page/User Login/btn login""), [:], STOP_ON_FAILURE)",Chrome 122.0.0.0,,,21-02-2024 19:29:19,21-02-2024 19:29:20,0.413s,PASSED
"callTestCase(findTestCase(""Page/User Login/Read error mesaage""), [""expected"":""invalid username or password""], STOP_ON_FAILURE)",Chrome 122.0.0.0,,,21-02-2024 19:29:20,21-02-2024 19:29:20,0.633s,PASSED
"callTestCase(findTestCase(""Close Browser""), [:], STOP_ON_FAILURE)",Chrome 122.0.0.0,,,21-02-2024 19:29:20,21-02-2024 19:29:20,0.253s,PASSED
,,,,,,,
Test Cases/Step Definition/Feature Login/LG005 - pengguna login dengan username dan password benar,Chrome 122.0.0.0,,,21-02-2024 19:29:21,21-02-2024 19:29:28,7.820s,PASSED
Start listener action : beforeTestCase,Chrome 122.0.0.0,,,21-02-2024 19:29:21,21-02-2024 19:29:21,0.004s,PASSED
"callTestCase(findTestCase(""Buka Website""), [:], STOP_ON_FAILURE)",Chrome 122.0.0.0,,,21-02-2024 19:29:21,21-02-2024 19:29:23,2.413s,PASSED
"callTestCase(findTestCase(""Page/User Login/Click btn untuk masuk ke halaman login""), [:], STOP_ON_FAILURE)",Chrome 122.0.0.0,,,21-02-2024 19:29:23,21-02-2024 19:29:23,0.418s,PASSED
"callTestCase(findTestCase(""Page/User Login/Verify content""), [:], STOP_ON_FAILURE)",Chrome 122.0.0.0,,,21-02-2024 19:29:23,21-02-2024 19:29:25,1.543s,PASSED
"callTestCase(findTestCase(""Page/User Login/Input username benar""), [:], STOP_ON_FAILURE)",Chrome 122.0.0.0,,,21-02-2024 19:29:25,21-02-2024 19:29:26,0.757s,PASSED
"callTestCase(findTestCase(""Page/User Login/Input password benar""), [:], STOP_ON_FAILURE)",Chrome 122.0.0.0,,,21-02-2024 19:29:26,21-02-2024 19:29:26,0.426s,PASSED
"callTestCase(findTestCase(""Page/User Login/btn login""), [:], STOP_ON_FAILURE)",Chrome 122.0.0.0,,,21-02-2024 19:29:26,21-02-2024 19:29:27,0.391s,PASSED
"callTestCase(findTestCase(""Page/User Login/Verfiy Berhasil Login""), [:], STOP_ON_FAILURE)",Chrome 122.0.0.0,,,21-02-2024 19:29:27,21-02-2024 19:29:28,1.554s,PASSED
"callTestCase(findTestCase(""Close Browser""), [:], STOP_ON_FAILURE)",Chrome 122.0.0.0,,,21-02-2024 19:29:28,21-02-2024 19:29:28,0.236s,PASSED
